id;is_internal_candidate;company;created_date;created_by;updated_date;updated_by;assessment_status;status;archive_status
1;false;Pennsylvania;2023-03-15T16:41:39;14914;2023-03-15T18:27:50;25091;interactive Kenya;true;false
2;true;improvement infomediaries hack;2023-03-15T15:57:51;22887;2023-03-16T05:54:21;20531;application XML;false;false
3;false;Loop;2023-03-15T16:47:44;86366;2023-03-15T17:49:53;22184;9(E.U.A.-9) Supervisor Frozen;true;false
4;true;users;2023-03-15T11:27:06;28461;2023-03-15T22:08:07;89608;Auto;false;false
5;false;violet;2023-03-15T11:14:17;89737;2023-03-16T09:04:22;90508;Metal deposit Ball;false;false
6;true;navigating;2023-03-16T08:11:52;23637;2023-03-15T19:17:16;5521;leading-edge;false;true
7;true;Investment;2023-03-15T19:46:04;1911;2023-03-16T01:48:47;81631;Haven black Principal;true;true
8;false;magenta disintermediate Savings;2023-03-16T06:59:38;19002;2023-03-16T04:18:27;63347;Ball;false;true
9;false;SMS Macao;2023-03-15T17:58:41;76449;2023-03-16T00:53:04;29198;one-to-one;false;false
10;true;Gorgeous Accounts extensible;2023-03-15T11:38:00;93696;2023-03-16T02:24:58;40676;Ergonomic back-end Account;false;false
