com/user/myapp/service/mapper/SuperAdminMapperTest.class
com/user/myapp/service/mapper/ClientSettingMapperTest.class
com/user/myapp/service/mapper/ClientMapperTest.class
com/user/myapp/domain/CandidateProfileTest.class
com/user/myapp/config/SqlTestContainer.class
com/user/myapp/service/dto/ClientDTOTest.class
com/user/myapp/service/mapper/InPreferenceUserMapperTest.class
com/user/myapp/TechnicalStructureTest.class
com/user/myapp/web/rest/UserRolePermissionResourceIT.class
com/user/myapp/web/rest/ClientResourceIT.class
com/user/myapp/domain/UserRolePermissionTest.class
com/user/myapp/service/dto/SuperAdminDTOTest.class
com/user/myapp/web/rest/TestUtil$ZonedDateTimeMatcher.class
com/user/myapp/web/rest/UserEmailsResourceIT.class
com/user/myapp/service/mapper/CandidateProfileMapperTest.class
com/user/myapp/domain/PermissionMasterTest.class
com/user/myapp/config/WebConfigurerTest.class
com/user/myapp/config/TestContainersSpringContextCustomizerFactory.class
com/user/myapp/web/rest/errors/ExceptionTranslatorIT.class
com/user/myapp/service/mapper/RoleAndPermissionsMapperTest.class
com/user/myapp/config/timezone/HibernateTimeZoneIT.class
com/user/myapp/security/jwt/JWTFilterTest.class
com/user/myapp/web/rest/PermissionMasterResourceIT.class
com/user/myapp/service/dto/InPreferenceUserDTOTest.class
com/user/myapp/domain/UserEmailsTest.class
com/user/myapp/service/dto/CandidateProfileDTOTest.class
com/user/myapp/service/mapper/PermissionsOnAttributeMasterMapperTest.class
com/user/myapp/web/rest/errors/ExceptionTranslatorTestController$TestResponseStatusException.class
com/user/myapp/web/rest/TestUtil.class
com/user/myapp/service/mapper/CandidateMapperTest.class
com/user/myapp/domain/PermissionsOnAttributeMasterTest.class
com/user/myapp/domain/CandidateDetailsTest.class
com/user/myapp/domain/RoleAndPermissionsTest.class
com/user/myapp/service/dto/UserPermissionOnAttributeDTOTest.class
com/user/myapp/service/dto/RoleMasterDTOTest.class
com/user/myapp/service/mapper/UserPermissionOnAttributeMapperTest.class
com/user/myapp/web/rest/CandidateDetailsResourceIT.class
com/user/myapp/config/AsyncSyncConfiguration.class
com/user/myapp/web/rest/ClientSettingResourceIT.class
com/user/myapp/security/jwt/TokenProviderTest.class
com/user/myapp/domain/InPreferenceUserTest.class
com/user/myapp/service/dto/CandidateDTOTest.class
com/user/myapp/domain/CandidateTest.class
com/user/myapp/security/jwt/TokenProviderSecurityMetersTests.class
com/user/myapp/web/rest/UserPermissionOnAttributeResourceIT.class
com/user/myapp/web/rest/WithUnauthenticatedMockUser$Factory.class
com/user/myapp/service/dto/PermissionMasterDTOTest.class
com/user/myapp/config/SpringBootTestClassOrderer.class
com/user/myapp/config/PostgreSqlTestContainer.class
com/user/myapp/config/EmbeddedSQL.class
com/user/myapp/service/dto/UserEmailsDTOTest.class
com/user/myapp/domain/SuperAdminTest.class
com/user/myapp/repository/timezone/DateTimeWrapper.class
com/user/myapp/web/rest/CandidateProfileResourceIT.class
com/user/myapp/service/dto/RoleAndPermissionsDTOTest.class
com/user/myapp/service/dto/PermissionsOnAttributeMasterDTOTest.class
com/user/myapp/service/mapper/UserEmailsMapperTest.class
com/user/myapp/service/mapper/RoleMasterMapperTest.class
com/user/myapp/repository/timezone/DateTimeWrapper_.class
com/user/myapp/web/rest/PermissionsOnAttributeMasterResourceIT.class
com/user/myapp/domain/ClientSettingTest.class
com/user/myapp/config/WebConfigurerTestController.class
com/user/myapp/web/rest/TestUtil$NumberMatcher.class
com/user/myapp/web/rest/SuperAdminResourceIT.class
com/user/myapp/repository/timezone/DateTimeWrapperRepository.class
com/user/myapp/domain/ClientTest.class
com/user/myapp/web/rest/errors/ExceptionTranslatorTestController$TestDTO.class
com/user/myapp/IntegrationTest.class
com/user/myapp/service/dto/PartnerDTOTest.class
com/user/myapp/service/mapper/CandidateDetailsMapperTest.class
com/user/myapp/web/rest/PartnerResourceIT.class
com/user/myapp/domain/RoleMasterTest.class
com/user/myapp/web/rest/RoleAndPermissionsResourceIT.class
com/user/myapp/web/rest/WithUnauthenticatedMockUser.class
com/user/myapp/domain/UserPermissionOnAttributeTest.class
com/user/myapp/web/rest/errors/ExceptionTranslatorTestController.class
com/user/myapp/web/rest/CandidateResourceIT.class
com/user/myapp/management/SecurityMetersServiceTests.class
com/user/myapp/service/mapper/LoginCountMapperTest.class
com/user/myapp/service/mapper/UserRolePermissionMapperTest.class
com/user/myapp/security/SecurityUtilsUnitTest.class
com/user/myapp/web/rest/LoginCountResourceIT.class
com/user/myapp/web/rest/RoleMasterResourceIT.class
com/user/myapp/domain/PartnerTest.class
com/user/myapp/domain/LoginCountTest.class
com/user/myapp/web/rest/InPreferenceUserResourceIT.class
com/user/myapp/service/dto/CandidateDetailsDTOTest.class
com/user/myapp/service/dto/LoginCountDTOTest.class
com/user/myapp/service/mapper/PartnerMapperTest.class
com/user/myapp/service/mapper/PermissionMasterMapperTest.class
com/user/myapp/service/dto/ClientSettingDTOTest.class
com/user/myapp/service/dto/UserRolePermissionDTOTest.class
